<?xml version="1.0" encoding="UTF-8"?>
<svg id="Calque_1" data-name="Calque 1" xmlns="http://www.w3.org/2000/svg" viewBox="0 0 254.7581 289.0669">
  <defs>
    <style>
      .cls-1 {
        fill: #772ce8;
      }

      .cls-2 {
        fill: none;
        stroke: #772ce8;
        stroke-miterlimit: 10;
        stroke-width: 10px;
      }
    </style>
  </defs>
  <path class="cls-2" d="m22.3205,281.7196c-9.5263,5.5-17.3205,1-17.3205-10v-107.1861c0-11,0-29,0-40V17.3474c0-11,7.7943-15.5,17.3206-10l92.8259,53.5931c9.5263,5.5,25.1147,14.5,34.641,20l92.8259,53.5931c9.5263,5.5,9.5263,14.5,0,20l-92.8259,53.593c-9.5263,5.5-25.1147,14.5-34.641,20l-92.8259,53.593Z"/>
  <path class="cls-1" d="m55.9228,224.8618c-9.5263,5.5-17.3205,1-17.3205-10v-50.3283c0-11,0-29,0-40v-50.3283c0-11,7.7943-15.5,17.3205-10l43.5856,25.1642c9.5263,5.5,25.1147,14.5,34.641,20l43.5856,25.1642c9.5263,5.5,9.5263,14.5,0,20l-43.5856,25.1641c-9.5263,5.5-25.1147,14.5-34.641,20l-43.5856,25.1641Z"/>
</svg>